%YAML 1.1
%TAG !u! tag:unity3d.com,2011:
--- !u!687078895 &687078895
SpriteAtlas:
  m_ObjectHideFlags: 0
  m_CorrespondingSourceObject: {fileID: 0}
  m_PrefabInstance: {fileID: 0}
  m_PrefabAsset: {fileID: 0}
  m_Name: skin_jazz_atlas
  m_EditorData:
    serializedVersion: 2
    textureSettings:
      serializedVersion: 2
      anisoLevel: 1
      compressionQuality: 50
      maxTextureSize: 2048
      textureCompression: 0
      filterMode: 1
      generateMipMaps: 0
      readable: 0
      crunchedCompression: 0
      sRGB: 1
    platformSettings: []
    packingSettings:
      serializedVersion: 2
      padding: 8
      blockOffset: 1
      allowAlphaSplitting: 0
      enableRotation: 1
      enableTightPacking: 0
    variantMultiplier: 1
    packables:
    - {fileID: 21300000, guid: ab9585069500f3d4e9312f352c309c91, type: 3}
    - {fileID: 21300002, guid: ab9585069500f3d4e9312f352c309c91, type: 3}
    - {fileID: 21300004, guid: ab9585069500f3d4e9312f352c309c91, type: 3}
    - {fileID: 21300006, guid: ab9585069500f3d4e9312f352c309c91, type: 3}
    - {fileID: 21300008, guid: ab9585069500f3d4e9312f352c309c91, type: 3}
    - {fileID: 21300010, guid: ab9585069500f3d4e9312f352c309c91, type: 3}
    - {fileID: 21300012, guid: ab9585069500f3d4e9312f352c309c91, type: 3}
    - {fileID: 21300014, guid: ab9585069500f3d4e9312f352c309c91, type: 3}
    - {fileID: 21300016, guid: ab9585069500f3d4e9312f352c309c91, type: 3}
    - {fileID: 21300018, guid: ab9585069500f3d4e9312f352c309c91, type: 3}
    - {fileID: 21300020, guid: ab9585069500f3d4e9312f352c309c91, type: 3}
    - {fileID: 21300022, guid: ab9585069500f3d4e9312f352c309c91, type: 3}
    - {fileID: 21300024, guid: ab9585069500f3d4e9312f352c309c91, type: 3}
    - {fileID: 21300026, guid: ab9585069500f3d4e9312f352c309c91, type: 3}
    - {fileID: 21300028, guid: ab9585069500f3d4e9312f352c309c91, type: 3}
    - {fileID: 21300030, guid: ab9585069500f3d4e9312f352c309c91, type: 3}
    - {fileID: 21300032, guid: ab9585069500f3d4e9312f352c309c91, type: 3}
    - {fileID: 21300034, guid: ab9585069500f3d4e9312f352c309c91, type: 3}
    - {fileID: 21300036, guid: ab9585069500f3d4e9312f352c309c91, type: 3}
    - {fileID: 21300038, guid: ab9585069500f3d4e9312f352c309c91, type: 3}
    totalSpriteSurfaceArea: 1982525
    bindAsDefault: 1
  m_MasterAtlas: {fileID: 0}
  m_PackedSprites:
  - {fileID: 21300026, guid: ab9585069500f3d4e9312f352c309c91, type: 3}
  - {fileID: 21300030, guid: ab9585069500f3d4e9312f352c309c91, type: 3}
  - {fileID: 21300028, guid: ab9585069500f3d4e9312f352c309c91, type: 3}
  - {fileID: 21300008, guid: ab9585069500f3d4e9312f352c309c91, type: 3}
  - {fileID: 21300002, guid: ab9585069500f3d4e9312f352c309c91, type: 3}
  - {fileID: 21300022, guid: ab9585069500f3d4e9312f352c309c91, type: 3}
  - {fileID: 21300020, guid: ab9585069500f3d4e9312f352c309c91, type: 3}
  - {fileID: 21300016, guid: ab9585069500f3d4e9312f352c309c91, type: 3}
  - {fileID: 21300010, guid: ab9585069500f3d4e9312f352c309c91, type: 3}
  - {fileID: 21300018, guid: ab9585069500f3d4e9312f352c309c91, type: 3}
  - {fileID: 21300036, guid: ab9585069500f3d4e9312f352c309c91, type: 3}
  - {fileID: 21300000, guid: ab9585069500f3d4e9312f352c309c91, type: 3}
  - {fileID: 21300024, guid: ab9585069500f3d4e9312f352c309c91, type: 3}
  - {fileID: 21300034, guid: ab9585069500f3d4e9312f352c309c91, type: 3}
  - {fileID: 21300014, guid: ab9585069500f3d4e9312f352c309c91, type: 3}
  - {fileID: 21300012, guid: ab9585069500f3d4e9312f352c309c91, type: 3}
  - {fileID: 21300032, guid: ab9585069500f3d4e9312f352c309c91, type: 3}
  - {fileID: 21300004, guid: ab9585069500f3d4e9312f352c309c91, type: 3}
  - {fileID: 21300038, guid: ab9585069500f3d4e9312f352c309c91, type: 3}
  - {fileID: 21300006, guid: ab9585069500f3d4e9312f352c309c91, type: 3}
  m_PackedSpriteNamesToIndex:
  - GUITAR_MENU_BUTTON
  - INGAME_COMBO_BG
  - SHADOW
  - CHORD_BTN_OFF
  - FRETBOARD_INDICATOR
  - GUITAR_MENU_BUTTON_HIGHLIGHTED
  - FRETBOARD_1
  - FRETBOARD_2
  - STRING_5
  - STRING_4
  - STRING_6
  - STRING_1
  - STRING_3
  - STRING_2
  - CHORD_BTN_ON
  - GUITAR-SOUNDBOX
  - FREE_MENU_SETTINGS_BTN_HIGHLIGHTED
  - INGAME_SCORE_BG
  - FREE_MENU_SETTINGS_BTN
  - INGAME_PAUSE_BTN
  m_Tag: skin_jazz_atlas
  m_IsVariant: 0
