%YAML 1.1
%TAG !u! tag:unity3d.com,2011:
--- !u!114 &11400000
MonoBehaviour:
  m_GameObject: {fileID: 0}
  m_Enabled: 1
  m_EditorHideFlags: 0
  m_Script: {fileID: 11500000, guid: d2935abda6ae2144d847b6a88e28ec66, type: 3}
  m_Name: Dark to Light Green - Vertical
  m_EditorClassIdentifier:
