%YAML 1.1
%TAG !u! tag:unity3d.com,2011:
--- !u!1 &6089484156700984813
GameObject:
  m_ObjectHideFlags: 0
  m_CorrespondingSourceObject: {fileID: 0}
  m_PrefabInstance: {fileID: 0}
  m_PrefabAsset: {fileID: 0}
  serializedVersion: 6
  m_Component:
  - component: {fileID: 6089484156700984811}
  - component: {fileID: 6089484156700984810}
  - component: {fileID: 6089484156700984808}
  m_Layer: 0
  m_Name: IAPManager
  m_TagString: Untagged
  m_Icon: {fileID: 0}
  m_NavMeshLayer: 0
  m_StaticEditorFlags: 0
  m_IsActive: 1
--- !u!4 &6089484156700984811
Transform:
  m_ObjectHideFlags: 0
  m_CorrespondingSourceObject: {fileID: 0}
  m_PrefabInstance: {fileID: 0}
  m_PrefabAsset: {fileID: 0}
  m_GameObject: {fileID: 6089484156700984813}
  m_LocalRotation: {x: 0, y: 0, z: 0, w: 1}
  m_LocalPosition: {x: 985.6369, y: 535.9922, z: -4667.8257}
  m_LocalScale: {x: 1, y: 1, z: 1}
  m_Children: []
  m_Father: {fileID: 0}
  m_RootOrder: 0
  m_LocalEulerAnglesHint: {x: 0, y: 0, z: 0}
--- !u!114 &6089484156700984810
MonoBehaviour:
  m_ObjectHideFlags: 0
  m_CorrespondingSourceObject: {fileID: 0}
  m_PrefabInstance: {fileID: 0}
  m_PrefabAsset: {fileID: 0}
  m_GameObject: {fileID: 6089484156700984813}
  m_Enabled: 1
  m_EditorHideFlags: 0
  m_Script: {fileID: 11500000, guid: e9e800d4b9d8cec4891ae495b7738b1c, type: 3}
  m_Name: 
  m_EditorClassIdentifier: 
  price: $199
  _productId: freecoolguitar.yearly.com
  Init: 0
  _storeManagerScreen: {fileID: 0}
--- !u!114 &6089484156700984808
MonoBehaviour:
  m_ObjectHideFlags: 0
  m_CorrespondingSourceObject: {fileID: 0}
  m_PrefabInstance: {fileID: 0}
  m_PrefabAsset: {fileID: 0}
  m_GameObject: {fileID: 6089484156700984813}
  m_Enabled: 1
  m_EditorHideFlags: 0
  m_Script: {fileID: 11500000, guid: 8209b68c058adbb4d8dced85def85d0f, type: 3}
  m_Name: 
  m_EditorClassIdentifier: 
  _productId:
  - freecoolguitar.yearly.com
  Loop3Screen: 0
