%YAML 1.1
%TAG !u! tag:unity3d.com,2011:
--- !u!114 &11400000
MonoBehaviour:
  m_GameObject: {fileID: 0}
  m_Enabled: 1
  m_EditorHideFlags: 0
  m_Script: {fileID: 11500000, guid: 6c60ddaf6bf8e6b49b7422192a97b2fe, type: 3}
  m_Name: DropCap Numbers
  m_EditorClassIdentifier:
