%YAML 1.1
%TAG !u! tag:unity3d.com,2011:
--- !u!114 &11400000
MonoBehaviour:
  m_ObjectHideFlags: 0
  m_CorrespondingSourceObject: {fileID: 0}
  m_PrefabInstance: {fileID: 0}
  m_PrefabAsset: {fileID: 0}
  m_GameObject: {fileID: 0}
  m_Enabled: 1
  m_EditorHideFlags: 0
  m_Script: {fileID: 11500000, guid: 7a3e89d1782d1854d814e2e153a85cec, type: 3}
  m_Name: Coffee
  m_EditorClassIdentifier: 
  id: coffee
  JSON: {fileID: 4900000, guid: c571397036fa81e4f9148711c4e8f71e, type: 3}
  accompanimentName: coffee_acc
  Name: Cup Of Coffee
  artist: 
  isTutoTrack: 0
  type: 2
  catalogVersion: 1
