%YAML 1.1
%TAG !u! tag:unity3d.com,2011:
--- !u!114 &11400000
MonoBehaviour:
  m_ObjectHideFlags: 0
  m_CorrespondingSourceObject: {fileID: 0}
  m_PrefabInstance: {fileID: 0}
  m_PrefabAsset: {fileID: 0}
  m_GameObject: {fileID: 0}
  m_Enabled: 1
  m_EditorHideFlags: 0
  m_Script: {fileID: 11500000, guid: 28a2d1650ae165f499524c4b01b52fec, type: 3}
  m_Name: GuitarHolder
  m_EditorClassIdentifier: 
  Items:
  - {fileID: 11400000, guid: 220282bbfade20748847f3acc1ef4192, type: 2}
  - {fileID: 11400000, guid: 476444358ce8d0443bf17b82a96f6b4d, type: 2}
  - {fileID: 11400000, guid: a08d5188991016f4397756e220328304, type: 2}
  - {fileID: 11400000, guid: d6f75bb5b59db804baf0420292051846, type: 2}
  - {fileID: 11400000, guid: 6ddf6b8e42fd00640895938c91aa388a, type: 2}
  selectedIndex: 3
