%YAML 1.1
%TAG !u! tag:unity3d.com,2011:
--- !u!114 &11400000
MonoBehaviour:
  m_ObjectHideFlags: 0
  m_CorrespondingSourceObject: {fileID: 0}
  m_PrefabInstance: {fileID: 0}
  m_PrefabAsset: {fileID: 0}
  m_GameObject: {fileID: 0}
  m_Enabled: 1
  m_EditorHideFlags: 0
  m_Script: {fileID: 11500000, guid: b648679b665f3fd48a30430f8b7ce294, type: 3}
  m_Name: MoPubConfiguration
  m_EditorClassIdentifier: 
  InternalCoreSettings: {fileID: 11400000, guid: a6ffcac83a9de9344adeaa3c5ecd985a, type: 2}
  Interstitials: 0
  Banners: 0
  RewardedVideos: 0
  PrototypeAppLovinSdkKey: TQKorH6tLTl4mT38_g3Abkk6FvyCMbXv1tht8okUGTT11b90HCBtxwzBpvN9Vw3XnmOvT6OqaxrbX_cqCpg7id
  MWMAppLovinSdkKey: TQKorH6tLTl4mT38_g3Abkk6FvyCMbXv1tht8okUGTT11b90HCBtxwzBpvN9Vw3XnmOvT6OqaxrbX_cqCpg7id
