%YAML 1.1
%TAG !u! tag:unity3d.com,2011:
--- !u!114 &11400000
MonoBehaviour:
  m_ObjectHideFlags: 0
  m_CorrespondingSourceObject: {fileID: 0}
  m_PrefabInstance: {fileID: 0}
  m_PrefabAsset: {fileID: 0}
  m_GameObject: {fileID: 0}
  m_Enabled: 1
  m_EditorHideFlags: 0
  m_Script: {fileID: 11500000, guid: 366e5f10ce0d27a44ac1b6ae45b1262f, type: 3}
  m_Name: patch-data-list-embedded
  m_EditorClassIdentifier: 
  Songs:
  - {fileID: 11400000, guid: a1482500ecf79194c979b2f328de9efb, type: 2}
  - {fileID: 11400000, guid: 07d2a8e9eb45724439ce18dd7206b1b2, type: 2}
  - {fileID: 11400000, guid: c889724123811fc43bf0f8f657bcc2b6, type: 2}
  - {fileID: 11400000, guid: ac9454c80d94e6f438620bdda0389a6b, type: 2}
  - {fileID: 11400000, guid: 0281f45c83c8bcb4f8f179ece39db235, type: 2}
  - {fileID: 11400000, guid: 3c32d8d8f7cde6a4ea408dce8efc5102, type: 2}
  - {fileID: 11400000, guid: 411368ab8d406294d8ad5f1a4b2f9e28, type: 2}
  - {fileID: 11400000, guid: af5c1ac00407ab5488cb5c333545a53d, type: 2}
  - {fileID: 11400000, guid: 5496d320a5e3fa7459e2b21b940a368f, type: 2}
  - {fileID: 11400000, guid: e302b959234f77b4cb58546a281addf2, type: 2}
  - {fileID: 11400000, guid: fdc12998b4d7a684eae825228056eb78, type: 2}
  - {fileID: 11400000, guid: 296e89b9d8c473d43b9a2d2a467ef734, type: 2}
