%YAML 1.1
%TAG !u! tag:unity3d.com,2011:
--- !u!114 &11400000
MonoBehaviour:
  m_GameObject: {fileID: 0}
  m_Enabled: 1
  m_EditorHideFlags: 0
  m_Script: {fileID: 11500000, guid: b0d966959bd96fd49865b42c87e728ca, type: 3}
  m_Name: TMP Settings
  m_EditorClassIdentifier:
