%YAML 1.1
%TAG !u! tag:unity3d.com,2011:
--- !u!114 &11400000
MonoBehaviour:
  m_GameObject: {fileID: 0}
  m_Enabled: 1
  m_EditorHideFlags: 0
  m_Script: {fileID: 11500000, guid: e02ea544bd7ca434c92297db6e219f2d, type: 3}
  m_Name: LiberationSans SDF
  m_EditorClassIdentifier:
