%YAML 1.1
%TAG !u! tag:unity3d.com,2011:
--- !u!114 &1
MonoBehaviour:
  m_ObjectHideFlags: 61
  m_CorrespondingSourceObject: {fileID: 0}
  m_PrefabInstance: {fileID: 0}
  m_PrefabAsset: {fileID: 0}
  m_GameObject: {fileID: 0}
  m_Enabled: 1
  m_EditorHideFlags: 0
  m_Script: {fileID: 13964, guid: 0000000000000000e000000000000000, type: 0}
  m_Name: 
  m_EditorClassIdentifier: 
  m_EnablePreviewPackages: 0
  m_EnablePackageDependencies: 0
  m_AdvancedSettingsExpanded: 1
  m_ScopedRegistriesSettingsExpanded: 1
  oneTimeWarningShown: 0
  m_Registries:
  - m_Id: main
    m_Name: 
    m_Url: https://packages.unity.com
    m_Scopes: []
    m_IsDefault: 1
    m_Capabilities: 7
  - m_Id: scoped:Packages from jillejrr
    m_Name: Packages from jillejrr
    m_Url: https://npm.cloudsmith.io/jillejr/newtonsoft-json-for-unity
    m_Scopes:
    - jillejr
    m_IsDefault: 0
    m_Capabilities: 0
  m_UserSelectedRegistryName: 
  m_UserAddingNewScopedRegistry: 0
  m_RegistryInfoDraft:
    m_ErrorMessage: 
    m_Original:
      m_Id: scoped:Packages from jillejrr
      m_Name: Packages from jillejrr
      m_Url: https://npm.cloudsmith.io/jillejr/newtonsoft-json-for-unity
      m_Scopes:
      - jillejr
      m_IsDefault: 0
      m_Capabilities: 0
    m_Modified: 0
    m_Name: Packages from jillejrr
    m_Url: https://npm.cloudsmith.io/jillejr/newtonsoft-json-for-unity
    m_Scopes:
    - jillejr
    m_SelectedScopeIndex: 0
