%YAML 1.1
%TAG !u! tag:unity3d.com,2011:
--- !u!114 &11400000
MonoBehaviour:
  m_ObjectHideFlags: 0
  m_CorrespondingSourceObject: {fileID: 0}
  m_PrefabInstance: {fileID: 0}
  m_PrefabAsset: {fileID: 0}
  m_GameObject: {fileID: 0}
  m_Enabled: 1
  m_EditorHideFlags: 0
  m_Script: {fileID: 11500000, guid: ac695c03334d64ebd95c3ab403d74540, type: 3}
  m_Name: BranchData
  m_EditorClassIdentifier: 
  liveBranchKey: key_live_kj6lxhTbvUknNwZm6IuovbkiBAmYsR22
  liveBranchUri: 
  liveAndroidPathPrefix: 
  liveAppLinks:
  - v1p8w.app.link
  - v1p8w-alternate.app.link
  testBranchKey: 
  testBranchUri: 
  testAndroidPathPrefix: 
  testAppLinks: []
  simulateFreshInstalls: 0
  testMode: 0
